[general]
creator=R package 'raster'
created=2017-11-29 12:00:02
[georeference]
nrows=21
ncols=66
xmin=-71
ymin=-61
xmax=61
ymax=-19
projection=+proj=longlat +datum=WGS84 +no_defs +ellps=WGS84 +towgs84=0,0,0
[data]
datatype=FLT4S
byteorder=little
nbands=1
bandorder=BIL
categorical=FALSE
minvalue=0
maxvalue=250999.662109375
nodatavalue=-3.4e+38
[legend]
legendtype=
values=
color=
[description]
layername=layer
